<?xml version="1.0" encoding="utf-8"?>
<!-- Generator: Adobe Illustrator 16.0.0, SVG Export Plug-In . SVG Version: 6.00 Build 0)  -->
<!DOCTYPE svg PUBLIC "-//W3C//DTD SVG 1.1//EN" "http://www.w3.org/Graphics/SVG/1.1/DTD/svg11.dtd">
<svg version="1.1" id="Layer_1" xmlns="http://www.w3.org/2000/svg" xmlns:xlink="http://www.w3.org/1999/xlink" x="0px" y="0px"
	 width="1027.448px" height="574.471px" viewBox="0 0 1027.448 574.471" enable-background="new 0 0 1027.448 574.471"
	 xml:space="preserve">
<path fill-rule="evenodd" clip-rule="evenodd" d="M30.381,11.895c316.96,0,633.92,0,950.881,0c0.495,0.329,0.979,0.929,1.484,0.946
	c8.611,0.299,16.209,3.659,22.809,8.735c5.273,4.055,10.938,8.495,9.444,16.711c-0.732,4.029-1.282,8.095-1.827,12.155
	c-1.42,10.581-2.73,21.176-4.2,31.75c-1.876,13.484-3.904,26.947-5.793,40.429c-1.48,10.57-2.804,21.162-4.282,31.732
	c-1.863,13.326-3.813,26.639-5.726,39.958c-1.585,11.041-3.234,22.072-4.732,33.124c-1.503,11.072-2.806,22.171-4.288,33.246
	c-1.437,10.729-2.977,21.443-4.494,32.161c-1.472,10.397-2.998,20.789-4.453,31.19c-1.522,10.89-2.982,21.79-4.482,32.683
	c-1.501,10.896-3.023,21.788-4.524,32.682c-1.479,10.732-2.948,21.466-4.418,32.199c-1.536,11.226-3.055,22.452-4.607,33.675
	c-1.191,8.611-2.447,17.214-3.633,25.825c-1.479,10.736-2.9,21.481-4.371,32.218c-1.113,8.126-1.535,16.433-3.555,24.329
	c-3.921,15.332-16.804,24.563-32.792,24.563c-265.945,0.004-531.892,0.003-797.838,0.003c-0.667,0-1.333,0.008-2-0.002
	c-15.635-0.228-29.104-10.966-32.507-26.407c-1.265-5.743-1.5-11.708-2.317-17.556c-1.523-10.898-3.199-21.776-4.681-32.679
	c-1.505-11.079-2.788-22.188-4.289-33.268c-1.499-11.063-3.204-22.098-4.712-33.16c-1.488-10.913-2.784-21.854-4.273-32.767
	c-1.51-11.062-3.218-22.096-4.723-33.157c-1.486-10.913-2.755-21.854-4.251-32.767c-1.493-10.891-3.229-21.749-4.71-32.643
	c-1.506-11.079-2.75-22.192-4.253-33.271c-1.854-13.668-3.909-27.309-5.777-40.976c-1.514-11.076-2.814-22.18-4.328-33.256
	c-1.824-13.338-3.845-26.65-5.646-39.991c-1.517-11.245-2.755-22.526-4.272-33.771c-1.843-13.669-3.836-27.318-5.788-40.972
	c-1.603-11.213-3.049-22.453-4.92-33.622c-1.669-9.975-1.85-10.386,7.27-15.488C22.391,14.451,26.506,13.388,30.381,11.895z"/>
</svg>
